VR431583_Mirko_Albanese_01/Solutions/Heterogeneous_Platform/bin/rtl_trace.vcd
$date
     Aug 14, 2019       21:48:07
$end

$version
 SystemC 2.3.2-Accellera --- Jan  9 2019 08:54:46
$end

$timescale
     1 ps
$end

$scope module SystemC $end
$var wire   32  aaaaa  word_0 [31:0]  $end
$var wire   32  aaaab  word_1 [31:0]  $end
$var wire    1  aaaac  din       $end
$var wire   32  aaaad  out_0 [31:0]  $end
$var wire   32  aaaae  Out_1 [31:0]  $end
$upscope $end
$enddefinitions  $end

$comment
All initial values are dumped below at time 0 sec = 0 timescale units.
$end

$dumpvars
b0 aaaaa
b0 aaaab
0aaaac
b0 aaaad
b0 aaaae
$end

#4000040000000
b11001000100111101111100011111101 aaaaa
b111101000110101101000110101101 aaaab
1aaaac

#4000080000000
0aaaac

#4005280000000
b1 aaaae

#8000080000000
b0 aaaae

#8000120000000
1aaaac

#8000160000000
0aaaac

#8005360000000
b1 aaaae

#12000160000000
b0 aaaae

#12000200000000
1aaaac

#12000240000000
0aaaac

#12005440000000
b1 aaaae

#16000240000000
b0 aaaae

#16000280000000
1aaaac

#16000320000000
0aaaac

#16005520000000
b1 aaaae

#20000320000000
b0 aaaae

#20000360000000
1aaaac

#20000400000000
0aaaac

#20005600000000
b1 aaaae

#24000400000000
b0 aaaae

#24000440000000
1aaaac

#24000480000000
0aaaac

#24005680000000
b1 aaaae

#28000480000000
b0 aaaae

#28000520000000
1aaaac

#28000560000000
0aaaac

#28005760000000
b1 aaaae

#32000560000000
b0 aaaae

#32000600000000
b1100111111011001000010101100011 aaaaa
b10110011110000011011001101010010 aaaab
1aaaac

#32000640000000
0aaaac

#36000680000000
1aaaac

#36000720000000
0aaaac

#40000760000000
1aaaac

#40000800000000
0aaaac

#44000840000000
1aaaac

#44000880000000
0aaaac

#48000920000000
b10011011011010011010111110101011 aaaaa
b10010001011001110111000100100001 aaaab
1aaaac

#48000960000000
0aaaac

#48006160000000
b1 aaaad

#52000960000000
b0 aaaad

#52001000000000
b1100111111011001000010101100011 aaaaa
b10110011110000011011001101010010 aaaab
1aaaac

#52001040000000
0aaaac

#56001080000000
1aaaac

#56001120000000
0aaaac

#60001160000000
1aaaac

#60001200000000
0aaaac

#64001240000000
1aaaac

#64001280000000
0aaaac

#68001320000000
1aaaac

#68001360000000
0aaaac

#72001400000000
1aaaac

#72001440000000
0aaaac

#76001480000000
1aaaac

#76001520000000
0aaaac

#80001560000000
1aaaac

#80001600000000
0aaaac

#84001640000000
1aaaac

#84001680000000
0aaaac

#88001720000000
1aaaac

#88001760000000
0aaaac

#92001800000000
1aaaac

#92001840000000
0aaaac

#96001880000000
1aaaac

#96001920000000
0aaaac

#100001960000000
1aaaac

#100002000000000
0aaaac

#104002040000000
1aaaac

#104002080000000
0aaaac

#108002120000000
1aaaac

#108002160000000
0aaaac

#112002200000000
1aaaac

#112002240000000
0aaaac

#116002280000000
1aaaac

#116002320000000
0aaaac

#120002360000000
1aaaac

#120002400000000
0aaaac

#124002440000000
1aaaac

#124002480000000
0aaaac

#128002520000000
1aaaac

#128002560000000
0aaaac

#132002600000000
1aaaac

#132002640000000
0aaaac

#136002680000000
1aaaac

#136002720000000
0aaaac

#140002760000000
1aaaac

#140002800000000
0aaaac

#144002840000000
1aaaac

#144002880000000
0aaaac

#148002920000000
1aaaac

#148002960000000
0aaaac

#152003000000000
1aaaac

#152003040000000
0aaaac

#156003080000000
1aaaac

#156003120000000
0aaaac

#160003160000000
1aaaac

#160003200000000
0aaaac

#164003240000000
1aaaac

#164003280000000
0aaaac

#168003320000000
1aaaac

#168003360000000
0aaaac

#172003400000000
1aaaac

#172003440000000
0aaaac

#176003480000000
1aaaac

#176003520000000
0aaaac

#180003560000000
1aaaac

#180003600000000
0aaaac

#184003640000000
1aaaac

#184003680000000
0aaaac

#188003720000000
1aaaac

#188003760000000
0aaaac

#192003800000000
1aaaac

#192003840000000
0aaaac

#196003880000000
1aaaac

#196003920000000
0aaaac

#200003960000000
1aaaac

#200004000000000
0aaaac

#204004040000000
1aaaac

#204004080000000
0aaaac

#208004120000000
1aaaac

#208004160000000
0aaaac

#212004200000000
1aaaac

#212004240000000
0aaaac

#216004280000000
1aaaac

#216004320000000
0aaaac

#220004360000000
1aaaac

#220004400000000
0aaaac

#224004440000000
1aaaac

#224004480000000
0aaaac

#228004520000000
1aaaac

#228004560000000
0aaaac

#232004600000000
1aaaac

#232004640000000
0aaaac

#236004680000000
1aaaac

#236004720000000
0aaaac

#240004760000000
1aaaac

#240004800000000
0aaaac

#244004840000000
1aaaac

#244004880000000
0aaaac

#248004920000000
1aaaac

#248004960000000
0aaaac

#252005000000000
1aaaac

#252005040000000
0aaaac

#256005080000000
1aaaac

#256005120000000
0aaaac

#260005160000000
1aaaac

#260005200000000
0aaaac

#264005240000000
1aaaac

#264005280000000
0aaaac

#268005320000000
1aaaac

#268005360000000
0aaaac

#272005400000000
1aaaac

#272005440000000
0aaaac

#276005480000000
1aaaac

#276005520000000
0aaaac

#280005560000000
1aaaac

#280005600000000
0aaaac

#284005640000000
1aaaac

#284005680000000
0aaaac

#288005720000000
1aaaac

#288005760000000
0aaaac

#292005800000000
1aaaac

#292005840000000
0aaaac

#296005880000000
1aaaac

#296005920000000
0aaaac

#300005960000000
1aaaac

#300006000000000
0aaaac

#304006040000000
1aaaac

#304006080000000
0aaaac

#308006120000000
1aaaac

#308006160000000
0aaaac

#312006200000000
1aaaac

#312006240000000
0aaaac

#316006280000000
1aaaac

#316006320000000
0aaaac

#320006360000000
1aaaac

#320006400000000
0aaaac

#324006440000000
1aaaac

#324006480000000
0aaaac

#328006520000000
1aaaac

#328006560000000
0aaaac

#332006600000000
1aaaac

#332006640000000
0aaaac

#336006680000000
1aaaac

#336006720000000
0aaaac

#340006760000000
1aaaac

#340006800000000
0aaaac

#344006840000000
1aaaac

#344006880000000
0aaaac

#348006920000000
1aaaac

#348006960000000
0aaaac

#352007000000000
1aaaac

#352007040000000
0aaaac

#356007080000000
1aaaac

#356007120000000
0aaaac

#360007160000000
1aaaac

#360007200000000
0aaaac

#364007240000000
1aaaac

#364007280000000
0aaaac

#368007320000000
1aaaac

#368007360000000
0aaaac

#372007400000000
1aaaac

#372007440000000
0aaaac

#376007480000000
1aaaac

#376007520000000
0aaaac

#380007560000000
1aaaac

#380007600000000
0aaaac

#384007640000000
1aaaac

#384007680000000
0aaaac

#388007720000000
1aaaac

#388007760000000
0aaaac

#392007800000000
1aaaac

#392007840000000
0aaaac

#396007880000000
1aaaac

#396007920000000
0aaaac

#400007960000000
1aaaac

#400008000000000
0aaaac

#404008040000000
1aaaac

#404008080000000
0aaaac

#408008120000000
1aaaac

#408008160000000
0aaaac

#412008200000000
1aaaac

#412008240000000
0aaaac

#416008280000000
1aaaac

#416008320000000
0aaaac

#420008360000000
1aaaac

#420008400000000
0aaaac

#424008440000000
1aaaac

#424008480000000
0aaaac

#428008520000000
1aaaac

#428008560000000
0aaaac

#432008600000000
1aaaac

#432008640000000
0aaaac

#436008680000000
1aaaac

#436008720000000
0aaaac

#440008760000000
1aaaac

#440008800000000
0aaaac

#444008840000000
1aaaac

#444008880000000
0aaaac

#448008920000000
1aaaac

#448008960000000
0aaaac

#452009000000000
1aaaac

#452009040000000
0aaaac

#456009080000000
1aaaac

#456009120000000
0aaaac

#460009160000000
1aaaac

#460009200000000
0aaaac

#464009240000000
1aaaac

#464009280000000
0aaaac

#468009320000000
1aaaac

#468009360000000
0aaaac

#472009400000000
1aaaac

#472009440000000
0aaaac

#476009480000000
1aaaac

#476009520000000
0aaaac

#480009560000000
1aaaac

#480009600000000
0aaaac

#484009640000000
1aaaac

#484009680000000
0aaaac

#488009720000000
1aaaac

#488009760000000
0aaaac

#492009800000000
1aaaac

#492009840000000
0aaaac

#496009880000000
1aaaac

#496009920000000
0aaaac

#500009960000000
1aaaac

#500010000000000
0aaaac

#504010040000000
1aaaac

#504010080000000
0aaaac

#508010120000000
1aaaac

#508010160000000
0aaaac

#512010200000000
1aaaac

#512010240000000
0aaaac

#516010280000000
1aaaac

#516010320000000
0aaaac

#520010360000000
1aaaac

#520010400000000
0aaaac

#524010440000000
1aaaac

#524010480000000
0aaaac

#528010520000000
1aaaac

#528010560000000
0aaaac

#532010600000000
1aaaac

#532010640000000
0aaaac

#536010680000000
1aaaac

#536010720000000
0aaaac

#540010760000000
1aaaac

#540010800000000
0aaaac

#544010840000000
1aaaac

#544010880000000
0aaaac

#548010920000000
1aaaac

#548010960000000
0aaaac

#552011000000000
1aaaac

#552011040000000
0aaaac

#556011080000000
1aaaac

#556011120000000
0aaaac

#560011160000000
1aaaac

#560011200000000
0aaaac

#564011240000000
1aaaac

#564011280000000
0aaaac

#568011320000000
1aaaac

#568011360000000
0aaaac

#572011400000000
1aaaac

#572011440000000
0aaaac

#576011480000000
1aaaac

#576011520000000
0aaaac

#580011560000000
1aaaac

#580011600000000
0aaaac

#584011640000000
1aaaac

#584011680000000
0aaaac

#588011720000000
1aaaac

#588011760000000
0aaaac

#592011800000000
1aaaac

#592011840000000
0aaaac

#596011880000000
1aaaac

#596011920000000
0aaaac

#600011960000000
1aaaac

#600012000000000
0aaaac

#604012040000000
1aaaac

#604012080000000
0aaaac

#608012120000000
1aaaac

#608012160000000
0aaaac

#612012200000000
1aaaac

#612012240000000
0aaaac

#616012280000000
1aaaac

#616012320000000
0aaaac

#620012360000000
1aaaac

#620012400000000
0aaaac

#624012440000000
1aaaac

#624012480000000
0aaaac

#628012520000000
1aaaac

#628012560000000
0aaaac

#632012600000000
1aaaac

#632012640000000
0aaaac

#636012680000000
1aaaac

#636012720000000
0aaaac

#640012760000000
1aaaac

#640012800000000
0aaaac

#644012840000000
1aaaac

#644012880000000
0aaaac

#648012920000000
1aaaac

#648012960000000
0aaaac

#652013000000000
1aaaac

#652013040000000
0aaaac

#656013080000000
1aaaac

#656013120000000
0aaaac

#660013160000000
1aaaac

#660013200000000
0aaaac

#664013240000000
1aaaac

#664013280000000
0aaaac

#668013320000000
1aaaac

#668013360000000
0aaaac

#672013400000000
1aaaac

#672013440000000
0aaaac

#676013480000000
1aaaac

#676013520000000
0aaaac

#680013560000000
1aaaac

#680013600000000
0aaaac

#684013640000000
1aaaac

#684013680000000
0aaaac

#688013720000000
1aaaac

#688013760000000
0aaaac

#692013800000000
1aaaac

#692013840000000
0aaaac

#696013880000000
1aaaac

#696013920000000
0aaaac

#700013960000000
1aaaac

#700014000000000
0aaaac

#704014040000000
1aaaac

#704014080000000
0aaaac

#708014120000000
1aaaac

#708014160000000
0aaaac

#712014200000000
1aaaac

#712014240000000
0aaaac

#716014280000000
1aaaac

#716014320000000
0aaaac

#720014360000000
1aaaac

#720014400000000
0aaaac

#724014440000000
1aaaac

#724014480000000
0aaaac

#728014520000000
1aaaac

#728014560000000
0aaaac

#732014600000000
1aaaac

#732014640000000
0aaaac

#736014680000000
1aaaac

#736014720000000
0aaaac

#740014760000000
1aaaac

#740014800000000
0aaaac

#744014840000000
1aaaac

#744014880000000
0aaaac

#748014920000000
1aaaac

#748014960000000
0aaaac

#752015000000000
1aaaac

#752015040000000
0aaaac

#756015080000000
1aaaac

#756015120000000
0aaaac

#760015160000000
1aaaac

#760015200000000
0aaaac

#764015240000000
1aaaac

#764015280000000
0aaaac

#768015320000000
1aaaac

#768015360000000
0aaaac

#772015400000000
1aaaac

#772015440000000
0aaaac

#776015480000000
1aaaac

#776015520000000
0aaaac

#780015560000000
1aaaac

#780015600000000
0aaaac

#784015640000000
1aaaac

#784015680000000
0aaaac

#788015720000000
1aaaac

#788015760000000
0aaaac

#792015800000000
1aaaac

#792015840000000
0aaaac

#796015880000000
1aaaac

#796015920000000
0aaaac

#800015960000000
1aaaac

#800016000000000
0aaaac

#804016040000000
1aaaac

#804016080000000
0aaaac

#808016120000000
1aaaac

#808016160000000
0aaaac

#812016200000000
1aaaac

#812016240000000
0aaaac

#816016280000000
1aaaac

#816016320000000
0aaaac

#820016360000000
1aaaac

#820016400000000
0aaaac

#824016440000000
1aaaac

#824016480000000
0aaaac

#828016520000000
1aaaac

#828016560000000
0aaaac

#832016600000000
1aaaac

#832016640000000
0aaaac

#836016680000000
1aaaac

#836016720000000
0aaaac

#840016760000000
1aaaac

#840016800000000
0aaaac

#844016840000000
1aaaac

#844016880000000
0aaaac

#848016920000000
1aaaac

#848016960000000
0aaaac

#852017000000000
1aaaac

#852017040000000
0aaaac

#856017080000000
1aaaac

#856017120000000
0aaaac

#860017160000000
1aaaac

#860017200000000
0aaaac

#864017240000000
1aaaac

#864017280000000
0aaaac

#868017320000000
1aaaac

#868017360000000
0aaaac

#872017400000000
1aaaac

#872017440000000
0aaaac

#876017480000000
1aaaac

#876017520000000
0aaaac

#880017560000000
1aaaac

#880017600000000
0aaaac

#884017640000000
1aaaac

#884017680000000
0aaaac

#888017720000000
1aaaac

#888017760000000
0aaaac

#892017800000000
1aaaac

#892017840000000
0aaaac

#896017880000000
1aaaac

#896017920000000
0aaaac

#900017960000000
1aaaac

#900018000000000
0aaaac

#904018040000000
1aaaac

#904018080000000
0aaaac

#908018120000000
1aaaac

#908018160000000
0aaaac

#912018200000000
1aaaac

#912018240000000
0aaaac

#916018280000000
1aaaac

#916018320000000
0aaaac

#920018360000000
1aaaac

#920018400000000
0aaaac

#924018440000000
1aaaac

#924018480000000
0aaaac

#928018520000000
1aaaac

#928018560000000
0aaaac

#932018600000000
1aaaac

#932018640000000
0aaaac

#936018680000000
1aaaac

#936018720000000
0aaaac

#940018760000000
1aaaac

#940018800000000
0aaaac

#944018840000000
1aaaac

#944018880000000
0aaaac

#948018920000000
1aaaac

#948018960000000
0aaaac

#952019000000000
1aaaac

#952019040000000
0aaaac

#956019080000000
1aaaac

#956019120000000
0aaaac

#960019160000000
1aaaac

#960019200000000
0aaaac

#964019240000000
1aaaac

#964019280000000
0aaaac

#968019320000000
1aaaac

#968019360000000
0aaaac

#972019400000000
1aaaac

#972019440000000
0aaaac

#976019480000000
1aaaac

#976019520000000
0aaaac

#980019560000000
1aaaac

#980019600000000
0aaaac

#984019640000000
1aaaac

#984019680000000
0aaaac

#988019720000000
1aaaac

#988019760000000
0aaaac

#992019800000000
1aaaac

#992019840000000
0aaaac

#996019880000000
1aaaac

#996019920000000
0aaaac

#1000019960000000
1aaaac

#1000020000000000
0aaaac

#1004020040000000
1aaaac

#1004020080000000
0aaaac

#1008020120000000
1aaaac

#1008020160000000
0aaaac

#1012020200000000
1aaaac

#1012020240000000
0aaaac

#1016020280000000
1aaaac

#1016020320000000
0aaaac

#1020020360000000
1aaaac

#1020020400000000
0aaaac

#1024020440000000
1aaaac

#1024020480000000
0aaaac

#1028020520000000
1aaaac

#1028020560000000
0aaaac

#1032020600000000
1aaaac

#1032020640000000
0aaaac

#1036020680000000
1aaaac

#1036020720000000
0aaaac

#1040020760000000
1aaaac

#1040020800000000
0aaaac

#1044020840000000
1aaaac

#1044020880000000
0aaaac

#1048020920000000
1aaaac

#1048020960000000
0aaaac

#1052021000000000
1aaaac

#1052021040000000
0aaaac

#1056021080000000
1aaaac

#1056021120000000
0aaaac

#1060021160000000
1aaaac

#1060021200000000
0aaaac

#1064021240000000
1aaaac

#1064021280000000
0aaaac

#1068021320000000
1aaaac

#1068021360000000
0aaaac

#1072021400000000
1aaaac

#1072021440000000
0aaaac

#1076021480000000
1aaaac

#1076021520000000
0aaaac

#1080021560000000
1aaaac

#1080021600000000
0aaaac

#1084021640000000
1aaaac

#1084021680000000
0aaaac

#1088021720000000
1aaaac

#1088021760000000
0aaaac

#1092021800000000
1aaaac

#1092021840000000
0aaaac

#1096021880000000
1aaaac

#1096021920000000
0aaaac

#1100021960000000
1aaaac

#1100022000000000
0aaaac

#1104022040000000
1aaaac

#1104022080000000
0aaaac

#1108022120000000
1aaaac

#1108022160000000
0aaaac

#1112022200000000
1aaaac

#1112022240000000
0aaaac

#1116022280000000
1aaaac

#1116022320000000
0aaaac

#1120022360000000
1aaaac

#1120022400000000
0aaaac

#1124022440000000
1aaaac

#1124022480000000
0aaaac

#1128022520000000
1aaaac

#1128022560000000
0aaaac

#1132022600000000
1aaaac

#1132022640000000
0aaaac

#1136022680000000
1aaaac

#1136022720000000
0aaaac

#1140022760000000
1aaaac

#1140022800000000
0aaaac

#1144022840000000
1aaaac

#1144022880000000
0aaaac

#1148022920000000
1aaaac

#1148022960000000
0aaaac

#1152023000000000
1aaaac

#1152023040000000
0aaaac

#1156023080000000
1aaaac

#1156023120000000
0aaaac

#1160023160000000
1aaaac

#1160023200000000
0aaaac

#1164023240000000
1aaaac

#1164023280000000
0aaaac

#1168023320000000
1aaaac

#1168023360000000
0aaaac

#1172023400000000
1aaaac

#1172023440000000
0aaaac

#1176023480000000
1aaaac

#1176023520000000
0aaaac

#1180023560000000
1aaaac

#1180023600000000
0aaaac

#1184023640000000
1aaaac

#1184023680000000
0aaaac

#1188023720000000
1aaaac

#1188023760000000
0aaaac

#1192023800000000
1aaaac

#1192023840000000
0aaaac

#1196023880000000
1aaaac

#1196023920000000
0aaaac

