VR431583_Mirko_Albanese_01/Solutions/HW_Subsystem/RTL/bin/wave.vcd
$date
     Sep 18, 2019       15:30:42
$end

$version
 SystemC 2.3.2-Accellera --- Jan  9 2019 08:54:46
$end

$timescale
     1 ps
$end

$scope module SystemC $end
$var wire    1  aaaaa  clock       $end
$var wire    1  aaaab  reset       $end
$var wire   32  aaaac  in_1 [31:0]  $end
$var wire   32  aaaad  in_2 [31:0]  $end
$var wire    1  aaaae  in_ready       $end
$var wire    1  aaaaf  mode       $end
$var wire   32  aaaag  res_1 [31:0]  $end
$var wire   32  aaaah  res_2 [31:0]  $end
$var wire    1  aaaai  res_ready       $end
$upscope $end
$enddefinitions  $end

$comment
All initial values are dumped below at time 0 sec = 0 timescale units.
$end

$dumpvars
1aaaaa
1aaaab
b10010001101000101011001111000 aaaac
b10011010101111001101111011111111 aaaad
0aaaae
0aaaaf
b0 aaaag
b0 aaaah
0aaaai
$end

#1000
1aaaae

#25000
0aaaaa

#50000
1aaaaa

#75000
0aaaaa

#100000
1aaaaa

#125000
0aaaaa

#150000
1aaaaa

#175000
0aaaaa

#200000
1aaaaa

#225000
0aaaaa

#250000
1aaaaa

#275000
0aaaaa

#300000
1aaaaa

#325000
0aaaaa

#350000
1aaaaa

#375000
0aaaaa

#400000
1aaaaa

#425000
0aaaaa

#450000
1aaaaa

#475000
0aaaaa

#500000
1aaaaa

#525000
0aaaaa

#550000
1aaaaa

#575000
0aaaaa

#600000
1aaaaa

#625000
0aaaaa

#650000
1aaaaa

#675000
0aaaaa

#700000
1aaaaa

#725000
0aaaaa

#750000
1aaaaa

#775000
0aaaaa

#800000
1aaaaa

#825000
0aaaaa

#850000
1aaaaa

#875000
0aaaaa

#900000
1aaaaa

#925000
0aaaaa

#950000
1aaaaa

#975000
0aaaaa

#1000000
1aaaaa

#1025000
0aaaaa

#1050000
1aaaaa

#1075000
0aaaaa

#1100000
1aaaaa

#1125000
0aaaaa

#1150000
1aaaaa

#1175000
0aaaaa

#1200000
1aaaaa

#1225000
0aaaaa

#1250000
1aaaaa

#1275000
0aaaaa

#1300000
1aaaaa

#1325000
0aaaaa

#1350000
1aaaaa

#1375000
0aaaaa

#1400000
1aaaaa

#1425000
0aaaaa

#1450000
1aaaaa

#1475000
0aaaaa

#1500000
1aaaaa

#1525000
0aaaaa

#1550000
1aaaaa

#1575000
0aaaaa

#1600000
1aaaaa

#1625000
0aaaaa

#1650000
1aaaaa

#1675000
0aaaaa

#1700000
1aaaaa

#1725000
0aaaaa

#1750000
1aaaaa

#1775000
0aaaaa

#1800000
1aaaaa

#1825000
0aaaaa

#1850000
1aaaaa

#1875000
0aaaaa

#1900000
1aaaaa

#1925000
0aaaaa

#1950000
1aaaaa

#1975000
0aaaaa

#2000000
1aaaaa

#2025000
0aaaaa

#2050000
1aaaaa

#2075000
0aaaaa

#2100000
1aaaaa

#2125000
0aaaaa

#2150000
1aaaaa

#2175000
0aaaaa

#2200000
1aaaaa

#2225000
0aaaaa

#2250000
1aaaaa

#2275000
0aaaaa

#2300000
1aaaaa

#2325000
0aaaaa

#2350000
1aaaaa

#2375000
0aaaaa

#2400000
1aaaaa

#2425000
0aaaaa

#2450000
1aaaaa

#2475000
0aaaaa

#2500000
1aaaaa

#2525000
0aaaaa

#2550000
1aaaaa

#2575000
0aaaaa

#2600000
1aaaaa

#2625000
0aaaaa

#2650000
1aaaaa

#2675000
0aaaaa

#2700000
1aaaaa

#2725000
0aaaaa

#2750000
1aaaaa

#2775000
0aaaaa

#2800000
1aaaaa

#2825000
0aaaaa

#2850000
1aaaaa

#2875000
0aaaaa

#2900000
1aaaaa

#2925000
0aaaaa

#2950000
1aaaaa

#2975000
0aaaaa

#3000000
1aaaaa

#3025000
0aaaaa

#3050000
1aaaaa

#3075000
0aaaaa

#3100000
1aaaaa

#3125000
0aaaaa

#3150000
1aaaaa

#3175000
0aaaaa

#3200000
1aaaaa

#3225000
0aaaaa

#3250000
1aaaaa

#3275000
0aaaaa

#3300000
1aaaaa

#3325000
0aaaaa

#3350000
1aaaaa

#3375000
0aaaaa

#3400000
1aaaaa

#3425000
0aaaaa

#3450000
1aaaaa

#3475000
0aaaaa

#3500000
1aaaaa

#3525000
0aaaaa

#3550000
1aaaaa

#3575000
0aaaaa

#3600000
1aaaaa

#3625000
0aaaaa

#3650000
1aaaaa

#3675000
0aaaaa

#3700000
1aaaaa

#3725000
0aaaaa

#3750000
1aaaaa

#3775000
0aaaaa

#3800000
1aaaaa

#3825000
0aaaaa

#3850000
1aaaaa

#3875000
0aaaaa

#3900000
1aaaaa

#3925000
0aaaaa

#3950000
1aaaaa

#3975000
0aaaaa

#4000000
1aaaaa

#4025000
0aaaaa

#4050000
1aaaaa

#4075000
0aaaaa

#4100000
1aaaaa

#4125000
0aaaaa

#4150000
1aaaaa

#4175000
0aaaaa

#4200000
1aaaaa

#4225000
0aaaaa

#4250000
1aaaaa

#4275000
0aaaaa

#4300000
1aaaaa

#4325000
0aaaaa

#4350000
1aaaaa

#4375000
0aaaaa

#4400000
1aaaaa

#4425000
0aaaaa

#4450000
1aaaaa

#4475000
0aaaaa

#4500000
1aaaaa

#4525000
0aaaaa

#4550000
1aaaaa

#4575000
0aaaaa

#4600000
1aaaaa

#4625000
0aaaaa

#4650000
1aaaaa

#4675000
0aaaaa

#4700000
1aaaaa

#4725000
0aaaaa

#4750000
1aaaaa

#4775000
0aaaaa

#4800000
1aaaaa

#4825000
0aaaaa

#4850000
1aaaaa

#4875000
0aaaaa

#4900000
1aaaaa

#4925000
0aaaaa

#4950000
1aaaaa

#4975000
0aaaaa

#5000000
1aaaaa

#5025000
0aaaaa

#5050000
1aaaaa

#5075000
0aaaaa

#5100000
1aaaaa

#5125000
0aaaaa

#5150000
1aaaaa

#5175000
0aaaaa

#5200000
1aaaaa

#5225000
0aaaaa

#5250000
1aaaaa

#5275000
0aaaaa

#5300000
1aaaaa

#5325000
0aaaaa

#5350000
1aaaaa

#5375000
0aaaaa

#5400000
1aaaaa

#5425000
0aaaaa

#5450000
1aaaaa

#5475000
0aaaaa

#5500000
1aaaaa

#5525000
0aaaaa

#5550000
1aaaaa

#5575000
0aaaaa

#5600000
1aaaaa

#5625000
0aaaaa

#5650000
1aaaaa

#5675000
0aaaaa

#5700000
1aaaaa

#5725000
0aaaaa

#5750000
1aaaaa

#5775000
0aaaaa

#5800000
1aaaaa

#5825000
0aaaaa

#5850000
1aaaaa

#5875000
0aaaaa

#5900000
1aaaaa

#5925000
0aaaaa

#5950000
1aaaaa

#5975000
0aaaaa

#6000000
1aaaaa

#6025000
0aaaaa

#6050000
1aaaaa

#6075000
0aaaaa

#6100000
1aaaaa

#6125000
0aaaaa

#6150000
1aaaaa

#6175000
0aaaaa

#6200000
1aaaaa

#6225000
0aaaaa

#6250000
1aaaaa

#6275000
0aaaaa

#6300000
1aaaaa

#6325000
0aaaaa

#6350000
1aaaaa

#6375000
0aaaaa

#6400000
1aaaaa

#6425000
0aaaaa

#6450000
1aaaaa

#6475000
0aaaaa

#6500000
1aaaaa
0aaaab
0aaaae

#6501000
1aaaab

#6502000
b10011001101110111011100100101011 aaaac
b111110101111010001011001000100 aaaad
1aaaae
1aaaaf

#6525000
0aaaaa

#6550000
1aaaaa

#6575000
0aaaaa

#6600000
1aaaaa

#6625000
0aaaaa

#6650000
1aaaaa

#6675000
0aaaaa

#6700000
1aaaaa

#6725000
0aaaaa

#6750000
1aaaaa

#6775000
0aaaaa

#6800000
1aaaaa

#6825000
0aaaaa

#6850000
1aaaaa

#6875000
0aaaaa

#6900000
1aaaaa

#6925000
0aaaaa

#6950000
1aaaaa

#6975000
0aaaaa

#7000000
1aaaaa

#7025000
0aaaaa

#7050000
1aaaaa

#7075000
0aaaaa

#7100000
1aaaaa

#7125000
0aaaaa

#7150000
1aaaaa

#7175000
0aaaaa

#7200000
1aaaaa

#7225000
0aaaaa

#7250000
1aaaaa

#7275000
0aaaaa

#7300000
1aaaaa

#7325000
0aaaaa

#7350000
1aaaaa

#7375000
0aaaaa

#7400000
1aaaaa

#7425000
0aaaaa

#7450000
1aaaaa

#7475000
0aaaaa

#7500000
1aaaaa

#7525000
0aaaaa

#7550000
1aaaaa

#7575000
0aaaaa

#7600000
1aaaaa

#7625000
0aaaaa

#7650000
1aaaaa

#7675000
0aaaaa

#7700000
1aaaaa

#7725000
0aaaaa

#7750000
1aaaaa

#7775000
0aaaaa

#7800000
1aaaaa

#7825000
0aaaaa

#7850000
1aaaaa

#7875000
0aaaaa

#7900000
1aaaaa

#7925000
0aaaaa

#7950000
1aaaaa

#7975000
0aaaaa

#8000000
1aaaaa

#8025000
0aaaaa

#8050000
1aaaaa

#8075000
0aaaaa

#8100000
1aaaaa

#8125000
0aaaaa

#8150000
1aaaaa

#8175000
0aaaaa

#8200000
1aaaaa

#8225000
0aaaaa

#8250000
1aaaaa

#8275000
0aaaaa

#8300000
1aaaaa

#8325000
0aaaaa

#8350000
1aaaaa

#8375000
0aaaaa

#8400000
1aaaaa

#8425000
0aaaaa

#8450000
1aaaaa

#8475000
0aaaaa

#8500000
1aaaaa

#8525000
0aaaaa

#8550000
1aaaaa

#8575000
0aaaaa

#8600000
1aaaaa

#8625000
0aaaaa

#8650000
1aaaaa

#8675000
0aaaaa

#8700000
1aaaaa

#8725000
0aaaaa

#8750000
1aaaaa

#8775000
0aaaaa

#8800000
1aaaaa

#8825000
0aaaaa

#8850000
1aaaaa

#8875000
0aaaaa

#8900000
1aaaaa

#8925000
0aaaaa

#8950000
1aaaaa

#8975000
0aaaaa

#9000000
1aaaaa

#9025000
0aaaaa

#9050000
1aaaaa

#9075000
0aaaaa

#9100000
1aaaaa

#9125000
0aaaaa

#9150000
1aaaaa

#9175000
0aaaaa

#9200000
1aaaaa

#9225000
0aaaaa

#9250000
1aaaaa

#9275000
0aaaaa

#9300000
1aaaaa

#9325000
0aaaaa

#9350000
1aaaaa

#9375000
0aaaaa

#9400000
1aaaaa

#9425000
0aaaaa

#9450000
1aaaaa

#9475000
0aaaaa

#9500000
1aaaaa

#9525000
0aaaaa

#9550000
1aaaaa

#9575000
0aaaaa

#9600000
1aaaaa

#9625000
0aaaaa

#9650000
1aaaaa

#9675000
0aaaaa

#9700000
1aaaaa

#9725000
0aaaaa

#9750000
1aaaaa

#9775000
0aaaaa

#9800000
1aaaaa

#9825000
0aaaaa

#9850000
1aaaaa

#9875000
0aaaaa

#9900000
1aaaaa

#9925000
0aaaaa

#9950000
1aaaaa

#9975000
0aaaaa

#10000000
1aaaaa

#10025000
0aaaaa

#10050000
1aaaaa

#10075000
0aaaaa

#10100000
1aaaaa

#10125000
0aaaaa

#10150000
1aaaaa

#10175000
0aaaaa

#10200000
1aaaaa

#10225000
0aaaaa

#10250000
1aaaaa

#10275000
0aaaaa

#10300000
1aaaaa

#10325000
0aaaaa

#10350000
1aaaaa

#10375000
0aaaaa

#10400000
1aaaaa

#10425000
0aaaaa

#10450000
1aaaaa

#10475000
0aaaaa

#10500000
1aaaaa

#10525000
0aaaaa

#10550000
1aaaaa

#10575000
0aaaaa

#10600000
1aaaaa

#10625000
0aaaaa

#10650000
1aaaaa

#10675000
0aaaaa

#10700000
1aaaaa

#10725000
0aaaaa

#10750000
1aaaaa

#10775000
0aaaaa

#10800000
1aaaaa

#10825000
0aaaaa

#10850000
1aaaaa

#10875000
0aaaaa

#10900000
1aaaaa

#10925000
0aaaaa

#10950000
1aaaaa

#10975000
0aaaaa

#11000000
1aaaaa

#11025000
0aaaaa

#11050000
1aaaaa

#11075000
0aaaaa

#11100000
1aaaaa

#11125000
0aaaaa

#11150000
1aaaaa

#11175000
0aaaaa

#11200000
1aaaaa

#11225000
0aaaaa

#11250000
1aaaaa

#11275000
0aaaaa

#11300000
1aaaaa

#11325000
0aaaaa

#11350000
1aaaaa

#11375000
0aaaaa

#11400000
1aaaaa

#11425000
0aaaaa

#11450000
1aaaaa

#11475000
0aaaaa

#11500000
1aaaaa

#11525000
0aaaaa

#11550000
1aaaaa

#11575000
0aaaaa

#11600000
1aaaaa

#11625000
0aaaaa

#11650000
1aaaaa

#11675000
0aaaaa

#11700000
1aaaaa

#11725000
0aaaaa

#11750000
1aaaaa

#11775000
0aaaaa

#11800000
1aaaaa

#11825000
0aaaaa

#11850000
1aaaaa

#11875000
0aaaaa

#11900000
1aaaaa

#11925000
0aaaaa

#11950000
1aaaaa

#11975000
0aaaaa

#12000000
1aaaaa

#12025000
0aaaaa

#12050000
1aaaaa

#12075000
0aaaaa

#12100000
1aaaaa

#12125000
0aaaaa

#12150000
1aaaaa

#12175000
0aaaaa

#12200000
1aaaaa

#12225000
0aaaaa

#12250000
1aaaaa

#12275000
0aaaaa

#12300000
1aaaaa

#12325000
0aaaaa

#12350000
1aaaaa

#12375000
0aaaaa

#12400000
1aaaaa

#12425000
0aaaaa

#12450000
1aaaaa

#12475000
0aaaaa

#12500000
1aaaaa

#12525000
0aaaaa

#12550000
1aaaaa

#12575000
0aaaaa

#12600000
1aaaaa

#12625000
0aaaaa

#12650000
1aaaaa

#12675000
0aaaaa

#12700000
1aaaaa

#12725000
0aaaaa

#12750000
1aaaaa

#12775000
0aaaaa

#12800000
1aaaaa

#12825000
0aaaaa

#12850000
1aaaaa

#12875000
0aaaaa

#12900000
1aaaaa

#12925000
0aaaaa

#12950000
1aaaaa

#12975000
0aaaaa

#13000000
1aaaaa

#13025000
0aaaaa

#13050000
1aaaaa
0aaaab
0aaaae

#13051000
1aaaab
b10010001101000101011001111000 aaaac
b10011010101111001101111011111111 aaaad

#13052000
1aaaae
0aaaaf

#13075000
0aaaaa

#13100000
1aaaaa

#13125000
0aaaaa

#13150000
1aaaaa

#13175000
0aaaaa

#13200000
1aaaaa

#13225000
0aaaaa

#13250000
1aaaaa

#13275000
0aaaaa

#13300000
1aaaaa

#13325000
0aaaaa

#13350000
1aaaaa

#13375000
0aaaaa

#13400000
1aaaaa

#13425000
0aaaaa

#13450000
1aaaaa

#13475000
0aaaaa

#13500000
1aaaaa

#13525000
0aaaaa

#13550000
1aaaaa

#13575000
0aaaaa

#13600000
1aaaaa

#13625000
0aaaaa

#13650000
1aaaaa

#13675000
0aaaaa

#13700000
1aaaaa

#13725000
0aaaaa

#13750000
1aaaaa

#13775000
0aaaaa

#13800000
1aaaaa

#13825000
0aaaaa

#13850000
1aaaaa

#13875000
0aaaaa

#13900000
1aaaaa

#13925000
0aaaaa

#13950000
1aaaaa

#13975000
0aaaaa

#14000000
1aaaaa

#14025000
0aaaaa

#14050000
1aaaaa

#14075000
0aaaaa

#14100000
1aaaaa

#14125000
0aaaaa

#14150000
1aaaaa

#14175000
0aaaaa

#14200000
1aaaaa

#14225000
0aaaaa

#14250000
1aaaaa

#14275000
0aaaaa

#14300000
1aaaaa

#14325000
0aaaaa

#14350000
1aaaaa

#14375000
0aaaaa

#14400000
1aaaaa

#14425000
0aaaaa

#14450000
1aaaaa

#14475000
0aaaaa

#14500000
1aaaaa

#14525000
0aaaaa

#14550000
1aaaaa

#14575000
0aaaaa

#14600000
1aaaaa

#14625000
0aaaaa

#14650000
1aaaaa

#14675000
0aaaaa

#14700000
1aaaaa

#14725000
0aaaaa

#14750000
1aaaaa

#14775000
0aaaaa

#14800000
1aaaaa

#14825000
0aaaaa

#14850000
1aaaaa

#14875000
0aaaaa

#14900000
1aaaaa

#14925000
0aaaaa

#14950000
1aaaaa

#14975000
0aaaaa

#15000000
1aaaaa

#15025000
0aaaaa

#15050000
1aaaaa

#15075000
0aaaaa

#15100000
1aaaaa

#15125000
0aaaaa

#15150000
1aaaaa

#15175000
0aaaaa

#15200000
1aaaaa

#15225000
0aaaaa

#15250000
1aaaaa

#15275000
0aaaaa

#15300000
1aaaaa

#15325000
0aaaaa

#15350000
1aaaaa

#15375000
0aaaaa

#15400000
1aaaaa

#15425000
0aaaaa

#15450000
1aaaaa

#15475000
0aaaaa

#15500000
1aaaaa

#15525000
0aaaaa

#15550000
1aaaaa

#15575000
0aaaaa

#15600000
1aaaaa

#15625000
0aaaaa

#15650000
1aaaaa

#15675000
0aaaaa

#15700000
1aaaaa

#15725000
0aaaaa

#15750000
1aaaaa

#15775000
0aaaaa

#15800000
1aaaaa

#15825000
0aaaaa

#15850000
1aaaaa

#15875000
0aaaaa

#15900000
1aaaaa

#15925000
0aaaaa

#15950000
1aaaaa

#15975000
0aaaaa

#16000000
1aaaaa

#16025000
0aaaaa

#16050000
1aaaaa

#16075000
0aaaaa

#16100000
1aaaaa

#16125000
0aaaaa

#16150000
1aaaaa

#16175000
0aaaaa

#16200000
1aaaaa

#16225000
0aaaaa

#16250000
1aaaaa

#16275000
0aaaaa

#16300000
1aaaaa

#16325000
0aaaaa

#16350000
1aaaaa

#16375000
0aaaaa

#16400000
1aaaaa

#16425000
0aaaaa

#16450000
1aaaaa

#16475000
0aaaaa

#16500000
1aaaaa

#16525000
0aaaaa

#16550000
1aaaaa

#16575000
0aaaaa

#16600000
1aaaaa

#16625000
0aaaaa

#16650000
1aaaaa

#16675000
0aaaaa

#16700000
1aaaaa

#16725000
0aaaaa

#16750000
1aaaaa

#16775000
0aaaaa

#16800000
1aaaaa

#16825000
0aaaaa

#16850000
1aaaaa

#16875000
0aaaaa

#16900000
1aaaaa

#16925000
0aaaaa

#16950000
1aaaaa

#16975000
0aaaaa

#17000000
1aaaaa

#17025000
0aaaaa

#17050000
1aaaaa

#17075000
0aaaaa

#17100000
1aaaaa

#17125000
0aaaaa

#17150000
1aaaaa

#17175000
0aaaaa

#17200000
1aaaaa

#17225000
0aaaaa

#17250000
1aaaaa

#17275000
0aaaaa

#17300000
1aaaaa

#17325000
0aaaaa

#17350000
1aaaaa

#17375000
0aaaaa

#17400000
1aaaaa

#17425000
0aaaaa

#17450000
1aaaaa

#17475000
0aaaaa

#17500000
1aaaaa

#17525000
0aaaaa

#17550000
1aaaaa

#17575000
0aaaaa

#17600000
1aaaaa

#17625000
0aaaaa

#17650000
1aaaaa

#17675000
0aaaaa

#17700000
1aaaaa

#17725000
0aaaaa

#17750000
1aaaaa

#17775000
0aaaaa

#17800000
1aaaaa

#17825000
0aaaaa

#17850000
1aaaaa

#17875000
0aaaaa

#17900000
1aaaaa

#17925000
0aaaaa

#17950000
1aaaaa

#17975000
0aaaaa

#18000000
1aaaaa

#18025000
0aaaaa

#18050000
1aaaaa

#18075000
0aaaaa

#18100000
1aaaaa

#18125000
0aaaaa

#18150000
1aaaaa

#18175000
0aaaaa

#18200000
1aaaaa

#18225000
0aaaaa

#18250000
1aaaaa

#18275000
0aaaaa

#18300000
1aaaaa

#18325000
0aaaaa

#18350000
1aaaaa

#18375000
0aaaaa

#18400000
1aaaaa

#18425000
0aaaaa

#18450000
1aaaaa

#18475000
0aaaaa

#18500000
1aaaaa

#18525000
0aaaaa

#18550000
1aaaaa

#18575000
0aaaaa

#18600000
1aaaaa

#18625000
0aaaaa

#18650000
1aaaaa

#18675000
0aaaaa

#18700000
1aaaaa

#18725000
0aaaaa

#18750000
1aaaaa

#18775000
0aaaaa

#18800000
1aaaaa

#18825000
0aaaaa

#18850000
1aaaaa

#18875000
0aaaaa

#18900000
1aaaaa

#18925000
0aaaaa

#18950000
1aaaaa

#18975000
0aaaaa

#19000000
1aaaaa

#19025000
0aaaaa

#19050000
1aaaaa

#19075000
0aaaaa

#19100000
1aaaaa

#19125000
0aaaaa

#19150000
1aaaaa

#19175000
0aaaaa

#19200000
1aaaaa

#19225000
0aaaaa

#19250000
1aaaaa

#19275000
0aaaaa

#19300000
1aaaaa

#19325000
0aaaaa

#19350000
1aaaaa

#19375000
0aaaaa

#19400000
1aaaaa

#19425000
0aaaaa

#19450000
1aaaaa

#19475000
0aaaaa

#19500000
1aaaaa

#19525000
0aaaaa

#19550000
1aaaaa
0aaaab
0aaaae

#19551000
1aaaab

#19552000
b10011001101110111011100100101011 aaaac
b111110101111010001011001000100 aaaad
1aaaae
1aaaaf

